[
  {
    "name": "Julio Basto",
    "fullName": "Julio de Jesus Basto Clavijo",
    "label": "Mechatronic engineer - Front End Developer",
    "image": "./images/myself.png",
    "email": "juliobastoc@hotmail.com",
    "phone": "(999) 225-8120",
    "website": "http://juliobasto.com",
    "summary": "Pleasant and dedicated mechatronics engineer, with more than 3 years of experience. Certified with continuous improvement tools, mechanical design and web programming. currently developing knowledge in web development.",
    "location": "Mexico"
  }
]