[
  {
    "title": "PROJECT 1",
    "slug": "project-1",
    "url": "https://homework-week1.vercel.app/",
    "image": "./images/PROJECT1.png",
    "description": "This is a form created to request and validate the following information: name, surname, email, phone, etc. This project contains a secret code (up, up, down, down, left, right, left, right, B, A)",
    "tags": [
      "all",
      "HTML",
      "CSS",
      "JavaScript"
    ],
    "layout": "fullscreen"
  },
  {
    "title": "PROJECT 2",
    "slug": "project-2",
    "url": "https://homework-week2.vercel.app/",
    "image": "./images/PROJECT2.png",
    "description": "The following code is a deployment of a news API. (The Guardian API). You can perform searches, change the English/Spanish language and select the amount of news to display.",
    "tags": [
      "all",
      "HTML",
      "CSS",
      "JavaScript",
      "API"
    ],
    "layout": "fullscreen"
  },
  {
    "title": "PROJECT 3",
    "slug": "project-3",
    "url": "https://homework-week3.vercel.app/",
    "image": "./images/PROJECT3.png",
    "description": "This code is an api consumption through a singleton fetch. You can create/modify/delete/comment or like the posts. In the same way you can filter the information and search for the keywords you want.",
    "tags": [
      "all",
      "HTML",
      "CSS",
      "JavaScript",
      "API",
      "JsonServer"
    ],
    "layout": "fullscreen"
  },
  {
    "title": "PROJECT 4",
    "slug": "project-4",
    "url": "https://homework-week4.vercel.app/",
    "image": "./images/PROJECT4.png",
    "description": "This code is an api consumption through a singleton fetch. You can create/modify/delete/comment or like the posts. In the same way you can filter the information and search for the keywords you want.",
    "tags": [
      "all",
      "React",
      "SASS",
      "JsonServer"
    ],
    "layout": "fullscreen"
  },
  {
    "title": "PROJECT 5",
    "slug": "project-5",
    "url": "https://homework-week5.vercel.app/",
    "image": "./images/PROJECT5.png",
    "description": "This code is an api consumption through a singleton fetch. You can create/modify/delete/comment or like the posts. In the same way you can filter the information and search for the keywords you want.",
    "tags": [
      "all",
      "React",
      "SASS",
      "API",
      "JavaScript"
    ],
    "layout": "fullscreen"
  },
  {
    "title": "PROJECT 6",
    "slug": "project-6",
    "url": "https://homework-week6.vercel.app/",
    "image": "./images/PROJECT6.png",
    "description": "This code is an api consumption through a singleton fetch. You can create/modify/delete/comment or like the posts. In the same way you can filter the information and search for the keywords you want.",
    "tags": [
      "all",
      "React",
      "SASS",
      "API",
      "Typescript",
      "Authentication"
    ],
    "layout": "fullscreen"
  },
  {
    "title": "PROJECT 7",
    "slug": "project-7",
    "url": "https://homework-week7.vercel.app/",
    "image": "./images/PROJECT7.png",
    "description": "This code is an api consumption through a singleton fetch. You can create/modify/delete/comment or like the posts. In the same way you can filter the information and search for the keywords you want.",
    "tags": [
      "all",
      "React",
      "SASS",
      "Typescript"
    ],
    "layout": "fullscreen"
  },
  {
    "title": "PROJECT 8",
    "slug": "project-8",
    "url": "https://homework-week8.vercel.app/",
    "image": "./images/PROJECT8.png",
    "description": "This code is an api consumption through a singleton fetch. You can create/modify/delete/comment or like the posts. In the same way you can filter the information and search for the keywords you want.",
    "tags": [
      "all",
      "React",
      "SASS",
      "Typescript",
      "ReactRedux"
    ],
    "layout": "fullscreen"
  },
  {
    "title": "PROJECT 9",
    "slug": "project-9",
    "url": "https://homework-week9.vercel.app/",
    "image": "./images/PROJECT9.png",
    "description": "This code is an api consumption through a singleton fetch. You can create/modify/delete/comment or like the posts. In the same way you can filter the information and search for the keywords you want.",
    "tags": [
      "all",
      "Testing",
      "Typescript",
      "React"
    ],
    "layout": "fullscreen"
  }
]